<svg xmlns="http://www.w3.org/2000/svg" width="13.947" height="13.946" viewBox="0 0 13.947 13.946">
  <g id="add" transform="translate(0 0)">
    <g id="Group_1216" data-name="Group 1216">
      <path id="Path_824" data-name="Path 824" d="M13.19,6H7.946V.758A.941.941,0,0,0,6.973,0,.941.941,0,0,0,6,.758V6H.757A.941.941,0,0,0,0,6.974a.941.941,0,0,0,.757.973H6v5.244a.941.941,0,0,0,.973.757.941.941,0,0,0,.973-.757V7.947H13.19a.941.941,0,0,0,.757-.973A.941.941,0,0,0,13.19,6Z" transform="translate(0 -0.001)" fill="#db4437"/>
    </g>
  </g>
</svg>
