<svg xmlns="http://www.w3.org/2000/svg" width="20.957" height="20.945" viewBox="0 0 20.957 20.945">
  <g id="clock" transform="translate(0)">
    <g id="Group_1307" data-name="Group 1307">
      <path id="Path_874" data-name="Path 874" d="M20.121,6.562A10.267,10.267,0,0,0,14.541,1,10.3,10.3,0,0,0,10.461.168,10.193,10.193,0,0,0,6.394,1,10.3,10.3,0,0,0,.825,6.562a10.469,10.469,0,0,0,0,8.147,10.322,10.322,0,0,0,5.569,5.569,10.194,10.194,0,0,0,4.068.836,10.3,10.3,0,0,0,4.079-.836,10.29,10.29,0,0,0,5.58-5.569,10.336,10.336,0,0,0,0-8.147Zm-1.673,8.7a9.193,9.193,0,0,1-3.369,3.357,9.025,9.025,0,0,1-4.618,1.237,8.873,8.873,0,0,1-3.575-.733,9.369,9.369,0,0,1-2.933-1.959,9.313,9.313,0,0,1-1.959-2.945,9.021,9.021,0,0,1-.722-3.586A9.008,9.008,0,0,1,2.5,6.023,9.2,9.2,0,0,1,5.855,2.666a8.955,8.955,0,0,1,4.606-1.238,9.025,9.025,0,0,1,4.618,1.238,9.221,9.221,0,0,1,3.369,3.357,8.956,8.956,0,0,1,1.237,4.606A9.042,9.042,0,0,1,18.448,15.259Z" transform="translate(0 -0.168)" fill="#fff"/>
      <path id="Path_875" data-name="Path 875" d="M288.388,117.5v-5.935a.661.661,0,0,0-.665-.642.646.646,0,0,0-.63.642v6.027a.523.523,0,0,1,.023.092.6.6,0,0,0,.172.516l3.426,3.426a.652.652,0,0,0,.882,0,.618.618,0,0,0,0-.894Z" transform="translate(-277.262 -107.128)" fill="#fff"/>
    </g>
  </g>
</svg>
