<svg xmlns="http://www.w3.org/2000/svg" width="33.6" height="21" viewBox="0 0 33.6 21">
  <g id="google-plus" transform="translate(0 -96)">
    <g id="Group_133" data-name="Group 133" transform="translate(23.1 100.2)">
      <g id="Group_132" data-name="Group 132">
        <path id="Path_268" data-name="Path 268" d="M358.3,164.2V160h-2.1v4.2H352v2.1h4.2v4.2h2.1v-4.2h4.2v-2.1Z" transform="translate(-352 -160)" fill="#fff"/>
      </g>
    </g>
    <g id="Group_135" data-name="Group 135" transform="translate(0 96)">
      <g id="Group_134" data-name="Group 134">
        <path id="Path_269" data-name="Path 269" d="M10.5,104.4v4.2h5.941a6.3,6.3,0,1,1-5.941-8.4,6.207,6.207,0,0,1,4.08,1.52l2.759-3.167A10.406,10.406,0,0,0,10.5,96,10.5,10.5,0,1,0,21,106.5v-2.1Z" transform="translate(0 -96)" fill="#fff"/>
      </g>
    </g>
  </g>
</svg>
