<svg xmlns="http://www.w3.org/2000/svg" width="15.115" height="19.716" viewBox="0 0 15.115 19.716">
  <path id="my-profile" d="M20.477,14.093l-3.139-1.569a.864.864,0,0,1-.48-.777V10.636c.075-.092.154-.2.236-.312a7.52,7.52,0,0,0,.971-1.906,1.3,1.3,0,0,0,.765-1.189V5.915a1.31,1.31,0,0,0-.329-.863V3.3a2.946,2.946,0,0,0-.687-2.144A4.136,4.136,0,0,0,14.558,0,4.137,4.137,0,0,0,11.3,1.16,2.946,2.946,0,0,0,10.615,3.3V5.052a1.31,1.31,0,0,0-.329.863V7.229a1.307,1.307,0,0,0,.492,1.022,6.9,6.9,0,0,0,1.151,2.378v1.087a.868.868,0,0,1-.452.762l-2.931,1.6A2.963,2.963,0,0,0,7,16.68v1.064c0,1.56,4.944,1.972,7.558,1.972s7.558-.412,7.558-1.972v-1A2.948,2.948,0,0,0,20.477,14.093Zm.981,3.651c0,.446-2.436,1.314-6.9,1.314s-6.9-.868-6.9-1.314V16.68a2.306,2.306,0,0,1,1.2-2.025l2.931-1.6a1.526,1.526,0,0,0,.8-1.34V10.4L12.51,10.3a6.2,6.2,0,0,1-1.121-2.322l-.03-.13-.112-.072a.656.656,0,0,1-.3-.551V5.915a.649.649,0,0,1,.22-.485l.108-.1V3.286l0-.043a2.282,2.282,0,0,1,.527-1.65A3.53,3.53,0,0,1,14.558.657a3.538,3.538,0,0,1,2.756.929,2.313,2.313,0,0,1,.533,1.656l0,2.09.108.1a.647.647,0,0,1,.22.484V7.229a.653.653,0,0,1-.467.624l-.164.05-.053.163a6.879,6.879,0,0,1-.931,1.877,4.324,4.324,0,0,1-.275.355l-.082.093v1.355a1.517,1.517,0,0,0,.843,1.365l3.139,1.569a2.294,2.294,0,0,1,1.275,2.064Z" transform="translate(-7)" fill="#707070"/>
</svg>
