<svg id="playlist" xmlns="http://www.w3.org/2000/svg" width="19.024" height="13.372" viewBox="0 0 19.024 13.372">
  <g id="Group_1311" data-name="Group 1311">
    <g id="Group_1310" data-name="Group 1310">
      <path id="Path_880" data-name="Path 880" d="M18.938,81.522l-1.571-1.571a.3.3,0,0,0-.417,0l-.361.361V77.407a1.346,1.346,0,0,0-1.345-1.345H1.345A1.346,1.346,0,0,0,0,77.407v9.124a1.346,1.346,0,0,0,1.345,1.345H9.726l-.264,1.2a.295.295,0,0,0,.352.352l2.015-.444h0a.294.294,0,0,0,.145-.079L13,87.876h2.242a1.346,1.346,0,0,0,1.345-1.345V84.289l1.535-1.535h0l.814-.814a.3.3,0,0,0,0-.417ZM.923,87.157a.755.755,0,0,1-.333-.626V77.407a.755.755,0,0,1,.333-.626,1.336,1.336,0,0,0-.155.626v9.124A1.337,1.337,0,0,0,.923,87.157Zm8.983-.1h0l-.05.225H2.113a.756.756,0,0,1-.755-.755V77.407a.756.756,0,0,1,.755-.755H15.244a.756.756,0,0,1,.755.755v3.5L9.985,86.915A.3.3,0,0,0,9.906,87.06Zm.231,1.691.229-1.038.81.81ZM16,86.531a.756.756,0,0,1-.755.755H13.592L16,84.879Zm-4.233,1.747-1.154-1.154,5.732-5.732L17.5,82.546Zm6.15-6.149-1.154-1.154.4-.4,1.154,1.154Z" transform="translate(0 -76.062)" fill="#707070"/>
      <path id="Path_881" data-name="Path 881" d="M198.3,179.071l-2.078-1.345a.65.65,0,0,0-1.066.58v2.815a.71.71,0,0,0,.334.657.583.583,0,0,0,.281.07.84.84,0,0,0,.452-.147l2.078-1.345a.728.728,0,0,0,0-1.286Zm-.32.791-2.078,1.345a.274.274,0,0,1-.13.053.271.271,0,0,1-.026-.137v-2.815a.272.272,0,0,1,.026-.138h0a.273.273,0,0,1,.129.053l2.078,1.345c.072.047.117.1.117.148S198.048,179.815,197.976,179.862Z" transform="translate(-187.901 -173.807)" fill="#707070"/>
      <path id="Path_882" data-name="Path 882" d="M407.069,244.3l-.9.9a.295.295,0,0,0,.417.417l.9-.9a.3.3,0,1,0-.417-.417Z" transform="translate(-390.994 -237.968)" fill="#707070"/>
      <path id="Path_883" data-name="Path 883" d="M130.3,127.819a3.984,3.984,0,1,0,3.984,3.984A3.988,3.988,0,0,0,130.3,127.819Zm0,7.377A3.394,3.394,0,1,1,133.7,131.8,3.4,3.4,0,0,1,130.3,135.2Z" transform="translate(-121.624 -125.896)" fill="#707070"/>
    </g>
  </g>
</svg>
