<svg xmlns="http://www.w3.org/2000/svg" width="18.869" height="23.225" viewBox="0 0 18.869 23.225">
  <path id="red-play-icon" d="M18.87,11.612,0,0V23.225Z" transform="translate(0 0)" fill="#db4437"/>
</svg>
